IP: 127.0.0.1
 User-Agent: Mozilla/5.0 (X11; Linux x86_64) AppleWebKit/537.36 (KHTML, like Gecko) Chrome/94.0.4606.61 Safari/537.36IP: 127.0.0.1
 User-Agent: Mozilla/5.0 (X11; Linux x86_64) AppleWebKit/537.36 (KHTML, like Gecko) Chrome/94.0.4606.61 Safari/537.36IP: 2a03:2880:ff:31::face:b00c
User-Agent: facebookexternalhit/1.1 (+http://www.facebook.com/externalhit_uatext.php)IP: 2a03:2880:ff:31::face:b00c
User-Agent: facebookexternalhit/1.1 (+http://www.facebook.com/externalhit_uatext.php)IP: 2a03:2880:31ff:9::face:b00c
User-Agent: facebookexternalhit/1.1 (+http://www.facebook.com/externalhit_uatext.php)IP: 103.124.227.104
User-Agent: Mozilla/5.0 (X11; Linux x86_64) AppleWebKit/537.36 (KHTML, like Gecko) Chrome/91.0.4472.114 Safari/537.36